37.187.37.88:8080:naelia:samunfy
37.187.39.235:8080:naelia:samunfy
37.187.43.211:8080:naelia:samunfy
37.187.180.145:8080:naelia:samunfy
46.105.33.249:8080:naelia:samunfy
46.105.44.118:8080:naelia:samunfy
46.105.55.185:8080:naelia:samunfy
46.105.75.148:8080:naelia:samunfy
46.105.77.231:8080:naelia:samunfy
87.98.155.137:8080:naelia:samunfy
87.98.188.71:8080:naelia:samunfy
92.222.0.211:8080:naelia:samunfy
92.222.216.223:8080:naelia:samunfy
176.31.66.244:8080:naelia:samunfy
176.31.220.8:8080:naelia:samunfy
178.32.75.134:8080:naelia:samunfy
178.32.93.159:8080:naelia:samunfy
178.32.111.8:8080:naelia:samunfy
178.33.44.127:8080:naelia:samunfy
178.33.84.145:8080:naelia:samunfy
178.33.93.91:8080:naelia:samunfy
178.33.111.61:8080:naelia:samunfy
178.33.153.151:8080:naelia:samunfy
178.33.196.176:8080:naelia:samunfy
188.165.33.46:8080:naelia:samunfy
188.165.55.18:8080:naelia:samunfy
188.165.181.159:8080:naelia:samunfy
213.186.35.47:8080:naelia:samunfy
